{"page":1,"total_results":112689,"total_pages":5635,"results":[{"vote_count":415,"id":184345,"video":false,"vote_average":5.4,"title":"A Haunted House 2","popularity":88.13648,"poster_path":"\/2c9utC3RGiw5NrqB72YIbp00uiF.jpg","original_language":"en","original_title":"A Haunted House 2","genre_ids":[35,27],"backdrop_path":"\/y5UpNboiQsSCCvTzU4POdyBL5pn.jpg","adult":false,"overview":"Having exorcised the demons of his ex, Malcolm is starting fresh with his new girlfriend and her two children. After moving into their dream home, however, Malcolm is once again plagued by bizarre paranormal events.","release_date":"2014-04-17"},{"vote_count":291,"id":459202,"video":false,"vote_average":5.4,"title":"Boo 2! A Madea Halloween","popularity":178.91532,"poster_path":"\/5nvP4etJ8ecQv8qZM08dK4BAzdK.jpg","original_language":"en","original_title":"Boo 2! A Madea Halloween","genre_ids":[27,35],"backdrop_path":"\/wqxKaffqTUKI9cl8YgBIm8IAZlR.jpg","adult":false,"overview":"Madea and the gang encounter monsters, goblins and boogeymen at a haunted campground.","release_date":"2017-10-20"},{"vote_count":238,"id":380124,"video":false,"vote_average":5.3,"title":"Boo! A Madea Halloween","popularity":59.780778,"poster_path":"\/dpSWKKBtXOu8hDNJRCIAYfcRtdD.jpg","original_language":"en","original_title":"Boo! A Madea Halloween","genre_ids":[35,27],"backdrop_path":"\/a6qgVLVE6SZfaAF1O5DgppfqDAC.jpg","adult":false,"overview":"Madea winds up in the middle of mayhem when she spends a hilarious, haunted Halloween fending off killers, paranormal poltergeists, ghosts, ghouls, and zombies while keeping a watchful eye on a group of misbehaving teens.","release_date":"2016-10-21"},{"vote_count":2734,"id":37735,"video":false,"vote_average":6.8,"title":"Easy A","popularity":22.550311,"poster_path":"\/1pgPO3OfSm2inpODMqg2RNmLW90.jpg","original_language":"en","original_title":"Easy A","genre_ids":[35],"backdrop_path":"\/wu4tawMznxUvqP21lUH6RKrv3LQ.jpg","adult":false,"overview":"After a little white lie about losing her virginity gets out, a clean cut high school girl sees her life paralleling Hester Prynne's in \"The Scarlet Letter,\" which she is currently studying in school - until she decides to use the rumor mill to advance her social and financial standing.","release_date":"2010-09-10"},{"vote_count":10,"id":467433,"video":false,"vote_average":8.4,"title":"A Question of Faith","popularity":50.686798,"poster_path":"\/mwVkW7sHqhPGdsZa5nb4X3J36vC.jpg","original_language":"en","original_title":"A Question of Faith","genre_ids":[18],"backdrop_path":"\/slo4uAwTb08rAq99pgLbV30oZzo.jpg","adult":false,"overview":"When Tragedy Strikes three Families, their Destiny forces them on a coverging path and mercy as the challenges of their fate could also resurrect their beliefs","release_date":"2017-09-29"},{"vote_count":147,"id":347026,"video":false,"vote_average":6.7,"title":"A United Kingdom","popularity":49.549079,"poster_path":"\/xyhoW9qK7ZaDM1V4A6pPL9DWjn8.jpg","original_language":"en","original_title":"A United Kingdom","genre_ids":[18,36],"backdrop_path":"\/cBlKxl2YSRVTLb1szSur8H3BNdZ.jpg","adult":false,"overview":"The inspiring true story of Seretse Khama, the King of Bechuanaland (modern Botswana), and Ruth Williams, the London office worker he married in 1948 in the face of fierce opposition from their families and the British and South African governments. Seretse and Ruth defied family, Apartheid and empire - their love triumphed over every obstacle flung in their path and in so doing they transformed their nation and inspired the world.","release_date":"2016-11-25"},{"vote_count":4145,"id":185,"video":false,"vote_average":8.1,"title":"A Clockwork Orange","popularity":48.51392,"poster_path":"\/kgAi87gyx6b4oGJYSC36tVkJyJu.jpg","original_language":"en","original_title":"A Clockwork Orange","genre_ids":[878,18],"backdrop_path":"\/unMc1jEyqCnzba976GviSFKGagt.jpg","adult":false,"overview":"Demonic gang-leader Alex goes on the spree of rape, mugging and murder with his pack of \"droogs\". But he's a boy who also likes Beethoven's Ninth and a bit of \"the old in-out, in-out\". He later finds himself at the mercy of the state and its brainwashing experiment designed to take violence off the streets.","release_date":"1971-12-18"},{"vote_count":117,"id":1988,"video":false,"vote_average":6.7,"title":"A Mighty Heart","popularity":48.121305,"poster_path":"\/eFhsNdOjLk5sAEaEMcvRpnKc19c.jpg","original_language":"en","original_title":"A Mighty Heart","genre_ids":[18,53],"backdrop_path":"\/iAiiTbxkTdpxlc1FHLzGQXnYHP9.jpg","adult":false,"overview":"Based on Mariane Pearl's account of the terrifying and unforgettable story of her husband, Wall Street Journal reporter Danny Pearl's life and death.","release_date":"2007-01-01"},{"vote_count":792,"id":381289,"video":false,"vote_average":6.8,"title":"A Dog's Purpose","popularity":32.928356,"poster_path":"\/3jcNvhtVQe5Neoffdic39fRactM.jpg","original_language":"en","original_title":"A Dog's Purpose","genre_ids":[35,18,10751,14],"backdrop_path":"\/2ddVTlMyATZdvUHE7DPExA2X6xF.jpg","adult":false,"overview":"A dog goes on quest to discover his purpose in life over the course of several lifetimes with multiple owners.","release_date":"2017-01-19"},{"vote_count":3001,"id":9487,"video":false,"vote_average":6.8,"title":"A Bug's Life","popularity":28.436426,"poster_path":"\/u9qGMRwcPwP0WETxulS5hKUsEum.jpg","original_language":"en","original_title":"A Bug's Life","genre_ids":[12,16,35,10751],"backdrop_path":"\/gOvW00ZMoEiyRwXVkHPfBictPAl.jpg","adult":false,"overview":"On behalf of \"oppressed bugs everywhere,\" an inventive ant named Flik hires a troupe of warrior bugs to defend his bustling colony from a horde of freeloading grasshoppers led by the evil-minded Hopper.","release_date":"1998-11-25"},{"vote_count":1101,"id":9476,"video":false,"vote_average":6.6,"title":"A Knight's Tale","popularity":28.130514,"poster_path":"\/1ZUpkMivvlF0ZoyXQzHF4El3izv.jpg","original_language":"en","original_title":"A Knight's Tale","genre_ids":[12,18,10749,28],"backdrop_path":"\/kohGZ3OqK31UYmf7b5fM5pB80VW.jpg","adult":false,"overview":"William Thatcher, a peasant, is sent to apprentice with a Knight named Hector as a young boy. Urged by his father to \"change his Stars\", he assumes Sir Hector's place in a tournament when Hector dies in the middle of it. He wins. With the other apprentices, he trains and assumes the title of Sir Ulrich von Lichtenstein.","release_date":"2001-05-11"},{"vote_count":2394,"id":1572,"video":false,"vote_average":7,"title":"Die Hard: With a Vengeance","popularity":72.539964,"poster_path":"\/ivpXGcsPZglyYrN65THWSD7JM3q.jpg","original_language":"en","original_title":"Die Hard: With a Vengeance","genre_ids":[28,53],"backdrop_path":"\/aJCEQFFXNcfg5YneJzTG15qzxF7.jpg","adult":false,"overview":"New York detective John McClane is back and kicking bad-guy butt in the third installment of this action-packed series, which finds him teaming with civilian Zeus Carver to prevent the loss of innocent lives. McClane thought he'd seen it all, until a genius named Simon engages McClane, his new \"partner\" -- and his beloved city -- in a deadly game that demands their concentration.","release_date":"1995-05-19"},{"vote_count":3606,"id":62,"video":false,"vote_average":7.9,"title":"2001: A Space Odyssey","popularity":36.683285,"poster_path":"\/90T7b2LIrL07ndYQBmSm09yqVEH.jpg","original_language":"en","original_title":"2001: A Space Odyssey","genre_ids":[878,9648,12],"backdrop_path":"\/pckdZ29bHj11hBsV3SbVVfmCB6C.jpg","adult":false,"overview":"Humanity finds a mysterious object buried beneath the lunar surface and sets off to find its origins with the help of HAL 9000, the world's most advanced super computer.","release_date":"1968-04-09"},{"vote_count":279,"id":483104,"video":false,"vote_average":6.5,"title":"A Christmas Prince","popularity":36.198011,"poster_path":"\/z3jfaahNCSUytgAQhavUmoA1ab6.jpg","original_language":"en","original_title":"A Christmas Prince","genre_ids":[10749],"backdrop_path":"\/9pGFipPwj7p1Et0KF2suM8zNuH8.jpg","adult":false,"overview":"When a reporter goes undercover as a nanny to get the inside scoop on a playboy prince, she gets tangled in some royal intrigue and ends up finding love - but will she be able to keep up her lie?","release_date":"2017-11-17"},{"vote_count":45,"id":391710,"video":false,"vote_average":7.1,"title":"A Futile and Stupid Gesture","popularity":60.843891,"poster_path":"\/uBWxqOR0eLR5Ih0orHgjN79sEeK.jpg","original_language":"en","original_title":"A Futile and Stupid Gesture","genre_ids":[35],"backdrop_path":"\/tWp1P6tGWSMJfmOZxs65SNV0khX.jpg","adult":false,"overview":"The National Lampoon name became globally recognized after the monumental success of Animal House—but before the glory days, it was a scrappy yet divinely subversive magazine and radio show that introduced the world to comedic geniuses like Bill Murray, Chevy Chase, John Belushi, and Gilda Radner. The driving force behind National Lampoon was Doug Kenney (Will Forte), and his truly wild and crazy story unfolds in A Futile and Stupid Gesture from Harvard to Hollywood to Caddyshack and beyond.","release_date":"2018-01-24"},{"vote_count":393,"id":77459,"video":false,"vote_average":6.5,"title":"A Monster in Paris","popularity":32.809688,"poster_path":"\/bEqkbV0bYIDWpu2dMc1Zy3aFHhT.jpg","original_language":"fr","original_title":"Un monstre à Paris","genre_ids":[12,16,35,10751,14],"backdrop_path":"\/fCZKEiiE3cCIqeWf2WSAiMCvDwN.jpg","adult":false,"overview":"Paris,1910. Emile, a shy movie projectionist, and Raoul, a colorful inventor, find themselves embarked on the hunt for a monster terrorizing citizens. They join forces with Lucille, the big-hearted star of the Bird of Paradise cabaret, an eccentric scientist and his irascible monkey to save the monster, who turns out to be an oversized but harmless flea, from the city's ruthlessly ambitious police chief.","release_date":"2011-10-12"},{"vote_count":30,"id":469872,"video":false,"vote_average":6.2,"title":"A Gentleman","popularity":12.961318,"poster_path":"\/rsZmANIzl7Ut27uBFWGz1tgPWVs.jpg","original_language":"hi","original_title":"अ जेंटलमैन","genre_ids":[10749,35],"backdrop_path":"\/wwPWKRteE3vxTMta2IxdRgEhYsq.jpg","adult":false,"overview":"Gaurav dreams of settling down with Kavya, the woman of his dreams, but she prefers a man who's more adventurous and willing to take risks. He soon stands to lose everything when a case of mistaken identity rocks his once-happy life.","release_date":"2017-08-25"},{"vote_count":598,"id":707,"video":false,"vote_average":6,"title":"A View to a Kill","popularity":13.034588,"poster_path":"\/veDMW7eX6tat86EapsvGEICJ8Tq.jpg","original_language":"en","original_title":"A View to a Kill","genre_ids":[12,28,53],"backdrop_path":"\/9SudvdR6HYtgTqMz17RYXdWuTUl.jpg","adult":false,"overview":"A newly developed microchip designed by Zorin Industries for the British Government that can survive the electromagnetic radiation caused by a nuclear explosion has landed in the hands of the KGB. James Bond must find out how and why. His suspicions soon lead him to big industry leader Max Zorin.","release_date":"1985-05-24"},{"vote_count":1434,"id":377,"video":false,"vote_average":7.2,"title":"A Nightmare on Elm Street","popularity":51.305837,"poster_path":"\/sXFlyjfWv544uKOJmPd2vVsaFm9.jpg","original_language":"en","original_title":"A Nightmare on Elm Street","genre_ids":[27],"backdrop_path":"\/3G7Xf2drr2u1jhOPxGR18pl39PX.jpg","adult":false,"overview":"Teenagers in a small town are dropping like flies, apparently in the grip of mass hysteria causing their suicides. A cop's daughter, Nancy Thompson (Heather Langenkamp) traces the cause to child molester Fred Krueger (Robert Englund), who was burned alive by angry parents many years before. Krueger has now come back in the dreams of his killers' children, claiming their lives as his revenge. Nancy and her boyfriend, Glen (Johnny Depp), must devise a plan to lure the monster out of the realm of nightmares and into the real world...","release_date":"1984-11-14"},{"vote_count":195,"id":11257,"video":false,"vote_average":6.9,"title":"A Room with a View","popularity":12.379789,"poster_path":"\/fS4mDKBIHeTmWXPGgz64d2dMyJG.jpg","original_language":"en","original_title":"A Room with a View","genre_ids":[18,10749],"backdrop_path":"\/eYOnXRVCR3FIT1LdtSFoCiVajqv.jpg","adult":false,"overview":"When Lucy Honeychurch and chaperon Charlotte Bartlett find themselves in Florence with rooms without views, fellow guests Mr Emerson and son George step in to remedy the situation. Meeting the Emersons could change Lucy's life forever but, once back in England, how will her experiences in Tuscany affect her marriage plans?","release_date":"1985-12-13"}]}